model name_Expect,model name_Actual,url,model name_Result,aspect_ratio_Expect,aspect_ratio_Actual,aspect_ratio_result,launch_monitor_position_Expect,launch_monitor_position_Actual,launch_monitor_position_result,recommended_projector_Expect,recommended_projector_Actual,recommended_projector_result,screen_size_golf_Expect,screen_size_golf_Actual,screen_size_golf_result
LU935ST,LU935ST,https://golfsimplanner-stage.benq.com/?aspect_ratio=1%3A1&screen_size__golf_=9%27x9%27%20&launch_monitor_position=Top&recommended_projector=LU935ST,Pass,1:1,1:1,Pass,Top,Top,Pass,LU935ST,LU935ST,Pass,9.0,9.0,Pass
LU935ST,LU935ST,https://golfsimplanner-stage.benq.com/?aspect_ratio=1%3A1&screen_size__golf_=9%27x9%27%20&launch_monitor_position=Side&recommended_projector=LU935ST,Pass,1:1,1:1,Pass,Side,Side,Pass,LU935ST,LU935ST,Pass,9.0,9.0,Pass
LU935ST,LU935ST,https://golfsimplanner-stage.benq.com/?aspect_ratio=1%3A1&screen_size__golf_=9%276%E2%80%9Dx9%276%E2%80%9D%20&launch_monitor_position=Top&recommended_projector=LU935ST,Pass,1:1,1:1,Pass,Top,Top,Pass,LU935ST,LU935ST,Pass,9.5,9.5,Pass
LU935ST,LU935ST,https://golfsimplanner-stage.benq.com/?aspect_ratio=1%3A1&screen_size__golf_=9%276%E2%80%9Dx9%276%E2%80%9D%20&launch_monitor_position=Side&recommended_projector=LU935ST,Pass,1:1,1:1,Pass,Side,Side,Pass,LU935ST,LU935ST,Pass,9.5,9.5,Pass
LU935ST,LU935ST,https://golfsimplanner-stage.benq.com/?aspect_ratio=1%3A1&screen_size__golf_=9%276%E2%80%9Dx9%276%E2%80%9D%20&launch_monitor_position=Back&recommended_projector=LU935ST,Pass,1:1,1:1,Pass,Back,Back,Pass,LU935ST,LU935ST,Pass,9.5,9.5,Pass
LU935ST,LU935ST,https://golfsimplanner-stage.benq.com/?aspect_ratio=1%3A1&screen_size__golf_=10%27x10%27%20&launch_monitor_position=Top&recommended_projector=LU935ST,Pass,1:1,1:1,Pass,Top,Top,Pass,LU935ST,LU935ST,Pass,10.0,10.0,Pass
LU935ST,LU935ST,https://golfsimplanner-stage.benq.com/?aspect_ratio=1%3A1&screen_size__golf_=10%27x10%27%20&launch_monitor_position=Side&recommended_projector=LU935ST,Pass,1:1,1:1,Pass,Side,Side,Pass,LU935ST,LU935ST,Pass,10.0,10.0,Pass
LU935ST,LU935ST,https://golfsimplanner-stage.benq.com/?aspect_ratio=1%3A1&screen_size__golf_=10%27x10%27%20&launch_monitor_position=Back&recommended_projector=LU935ST,Pass,1:1,1:1,Pass,Back,Back,Pass,LU935ST,LU935ST,Pass,10.0,10.0,Pass
LU935ST,LU935ST,https://golfsimplanner-stage.benq.com/?aspect_ratio=4%3A3&screen_size__golf_=8%276%22x11%276%22%20&launch_monitor_position=Side&recommended_projector=LU935ST,Pass,4:3,4:3,Pass,Side,Side,Pass,LU935ST,LU935ST,Pass,8.5,8.5,Pass
LU935ST,LU935ST,https://golfsimplanner-stage.benq.com/?aspect_ratio=4%3A3&screen_size__golf_=9%27x12%27%20&launch_monitor_position=Side&recommended_projector=LU935ST,Pass,4:3,4:3,Pass,Side,Side,Pass,LU935ST,LU935ST,Pass,9.0,9.0,Pass
LU935ST,LU935ST,https://golfsimplanner-stage.benq.com/?aspect_ratio=4%3A3&screen_size__golf_=9%276%22x12%276%22%20&launch_monitor_position=Top&recommended_projector=LU935ST,Pass,4:3,4:3,Pass,Top,Top,Pass,LU935ST,LU935ST,Pass,9.5,9.5,Pass
LU935ST,LU935ST,https://golfsimplanner-stage.benq.com/?aspect_ratio=4%3A3&screen_size__golf_=9%276%22x12%276%22%20&launch_monitor_position=Side&recommended_projector=LU935ST,Pass,4:3,4:3,Pass,Side,Side,Pass,LU935ST,LU935ST,Pass,9.5,9.5,Pass
LU935ST,LU935ST,https://golfsimplanner-stage.benq.com/?aspect_ratio=4%3A3&screen_size__golf_=9%276%22x12%276%22%20&launch_monitor_position=Back&recommended_projector=LU935ST,Pass,4:3,4:3,Pass,Back,Back,Pass,LU935ST,LU935ST,Pass,9.5,9.5,Pass
LU935ST,LU935ST,https://golfsimplanner-stage.benq.com/?aspect_ratio=16%3A10&screen_size__golf_=8%27x12%27%20&launch_monitor_position=Side&recommended_projector=LU935ST,Pass,16:10,16:10,Pass,Side,Side,Pass,LU935ST,LU935ST,Pass,8.0,8.0,Pass
LU935ST,LU935ST,https://golfsimplanner-stage.benq.com/?aspect_ratio=16%3A10&screen_size__golf_=8%276%22x13%27%20&launch_monitor_position=Side&recommended_projector=LU935ST,Pass,16:10,16:10,Pass,Side,Side,Pass,LU935ST,LU935ST,Pass,8.5,8.5,Pass
LU935ST,LU935ST,https://golfsimplanner-stage.benq.com/?aspect_ratio=16%3A10&screen_size__golf_=9%27x14%27%20&launch_monitor_position=Side&recommended_projector=LU935ST,Pass,16:10,16:10,Pass,Side,Side,Pass,LU935ST,LU935ST,Pass,9.0,9.0,Pass
LU935ST,LU935ST,https://golfsimplanner-stage.benq.com/?aspect_ratio=16%3A10&screen_size__golf_=9%27x14%27%20&launch_monitor_position=Top&recommended_projector=LU935ST,Pass,16:10,16:10,Pass,Top,Top,Pass,LU935ST,LU935ST,Pass,9.0,9.0,Pass
LU935ST,LU935ST,https://golfsimplanner-stage.benq.com/?aspect_ratio=16%3A10&screen_size__golf_=9%276%22x15%27%20&launch_monitor_position=Top&recommended_projector=LU935ST,Pass,16:10,16:10,Pass,Top,Top,Pass,LU935ST,LU935ST,Pass,9.5,9.5,Pass
LU935ST,LU935ST,https://golfsimplanner-stage.benq.com/?aspect_ratio=16%3A10&screen_size__golf_=9%276%22x15%27%20&launch_monitor_position=Side&recommended_projector=LU935ST,Pass,16:10,16:10,Pass,Side,Side,Pass,LU935ST,LU935ST,Pass,9.5,9.5,Pass
LU935ST,LU935ST,https://golfsimplanner-stage.benq.com/?aspect_ratio=16%3A10&screen_size__golf_=9%276%22x15%27%20&launch_monitor_position=Back&recommended_projector=LU935ST,Pass,16:10,16:10,Pass,Back,Back,Pass,LU935ST,LU935ST,Pass,9.5,9.5,Pass
LU935ST,LU935ST,https://golfsimplanner-stage.benq.com/?aspect_ratio=16%3A9&screen_size__golf_=9%27x16%27%20&launch_monitor_position=Side&recommended_projector=LU935ST,Pass,16:9,16:9,Pass,Side,Side,Pass,LU935ST,LU935ST,Pass,9.0,9.0,Pass
LU935ST,LU935ST,https://golfsimplanner-stage.benq.com/?aspect_ratio=16%3A9&screen_size__golf_=9%276%22x17%27%20&launch_monitor_position=Top&recommended_projector=LU935ST,Pass,16:9,16:9,Pass,Top,Top,Pass,LU935ST,LU935ST,Pass,9.5,9.5,Pass
LU935ST,LU935ST,https://golfsimplanner-stage.benq.com/?aspect_ratio=16%3A9&screen_size__golf_=9%276%22x17%27%20&launch_monitor_position=Side&recommended_projector=LU935ST,Pass,16:9,16:9,Pass,Side,Side,Pass,LU935ST,LU935ST,Pass,9.5,9.5,Pass
LU935ST,LU935ST,https://golfsimplanner-stage.benq.com/?aspect_ratio=16%3A9&screen_size__golf_=9%276%22x17%27%20&launch_monitor_position=Back&recommended_projector=LU935ST,Pass,16:9,16:9,Pass,Back,Back,Pass,LU935ST,LU935ST,Pass,9.5,9.5,Pass
