model name_Expect,model name_Actual,url,model name_Result,aspect_ratio_Expect,aspect_ratio_Actual,aspect_ratio_result,launch_monitor_position_Expect,launch_monitor_position_Actual,launch_monitor_position_result,recommended_projector_Expect,recommended_projector_Actual,recommended_projector_result,screen_size_golf_Expect,screen_size_golf_Actual,screen_size_golf_result
LW500ST,LW500ST,https://golfsimplanner-stage.benq.com/?aspect_ratio=1%3A1&screen_size__golf_=7%278%22x7%278%22%20&launch_monitor_position=Back&recommended_projector=LW500ST,Pass,1:01,1:01,Pass,Back,Back,Pass,LW500ST,LW500ST,Pass,7.7,7.7,Pass
LW500ST,LW500ST,https://golfsimplanner-stage.benq.com/?aspect_ratio=1%3A1&screen_size__golf_=8%27x8%27%20&launch_monitor_position=Back&recommended_projector=LW500ST,Pass,1:01,1:01,Pass,Back,Back,Pass,LW500ST,LW500ST,Pass,8,8,Pass
